…
###

## 내용 실행
df <- readRDS("data/df.rds") %>% sample_frac(1)

sample_frac은 fraction만큼 rows의 샘플을 랜덤하게 뽑는 함수입니다.
sample_frac(dataframe,0.1)이면 0.1의 fraction이므로 전체 dataframe의 10%만큼을 랜덤하게 뽑습니다.
sample_frac(dataframe,1)이면 전체를 랜덤하게 뽑는다는 뜻입니다.
그러므로 그냥 읽어들인 dataframe을 랜덤하게 섞는 것입니다.

> df
# A tibble: 64,721 x 3
   fname                                                  class class_id
   <chr>                                                  <chr>    <int>
 1 data/speech_commands_v0.01/on/46a153d8_nohash_3.wav    on          16
 2 data/speech_commands_v0.01/down/7211390b_nohash_2.wav  down         4
 3 data/speech_commands_v0.01/house/e2362167_nohash_0.wav house       10
 4 data/speech_commands_v0.01/no/c5570933_nohash_1.wav    no          14
 5 data/speech_commands_v0.01/nine/0a9f9af7_nohash_0.wav  nine        13
 6 data/speech_commands_v0.01/bed/47565088_nohash_2.wav   bed          0
 7 data/speech_commands_v0.01/stop/90804775_nohash_1.wav  stop        22
 8 data/speech_commands_v0.01/zero/5fadb538_nohash_2.wav  zero        29
 9 data/speech_commands_v0.01/seven/ad5aeec2_nohash_1.wav seven       19
10 data/speech_commands_v0.01/wow/09ddc105_nohash_2.wav   wow         27
# ... with 64,711 more rows
> 

> readRDS("data/df.rds")
# A tibble: 64,721 x 3
   fname                                                class class_id
   <chr>                                                <chr>    <int>
 1 data/speech_commands_v0.01/bed/00176480_nohash_0.wav bed          0
 2 data/speech_commands_v0.01/bed/004ae714_nohash_0.wav bed          0
 3 data/speech_commands_v0.01/bed/004ae714_nohash_1.wav bed          0
 4 data/speech_commands_v0.01/bed/00f0204f_nohash_0.wav bed          0
 5 data/speech_commands_v0.01/bed/00f0204f_nohash_1.wav bed          0
 6 data/speech_commands_v0.01/bed/012c8314_nohash_0.wav bed          0
 7 data/speech_commands_v0.01/bed/012c8314_nohash_1.wav bed          0
 8 data/speech_commands_v0.01/bed/0132a06d_nohash_0.wav bed          0
 9 data/speech_commands_v0.01/bed/0135f3f2_nohash_0.wav bed          0
10 data/speech_commands_v0.01/bed/0137b3f4_nohash_0.wav bed          0
# ... with 64,711 more rows
> 

> readRDS("data/df.rds") %>% sample_frac(1)
# A tibble: 64,721 x 3
   fname                                                  class class_id
   <chr>                                                  <chr>    <int>
 1 data/speech_commands_v0.01/cat/b43de700_nohash_0.wav   cat          2
 2 data/speech_commands_v0.01/off/36050ef3_nohash_4.wav   off         15
 3 data/speech_commands_v0.01/six/a331d9cb_nohash_0.wav   six         21
 4 data/speech_commands_v0.01/eight/62641b88_nohash_0.wav eight        5
 5 data/speech_commands_v0.01/dog/6aafb34f_nohash_0.wav   dog          3
 6 data/speech_commands_v0.01/two/b1426003_nohash_0.wav   two         25
 7 data/speech_commands_v0.01/cat/902258bb_nohash_0.wav   cat          2
 8 data/speech_commands_v0.01/left/3c165869_nohash_0.wav  left        11
 9 data/speech_commands_v0.01/eight/38d78313_nohash_0.wav eight        5
10 data/speech_commands_v0.01/down/cd7f8c1b_nohash_2.wav  down         4
# ... with 64,711 more rows
…
